[
	{
		"title": "Quienes somos",
		"text": "La unidad de concertacion y cooperacion municipalista es una entidad tecnica administrativa de coordinacion y representacion conjunta de 6 gobiernos municipales del departamento de madriz (y demas municipios que se adhieran al convenio de cooperacion municipalista); actua en todas las tematicas que, por su importancia, afectan a sus intereses comunes en el municipio."
	},
	{
		"title": "Patrocinadores",
		"text": "Alcaldia de Somoto.\nAlcaldia de las Sabanas\nAlcaldia de Ocotal\nAlcaldia de Palacaguina"
	},
	{
		"title": "Visión",
		"text":"Dar un mayor impulso hacia una colaboración más específica y directa con las autoridades locales, en el entendido que es una buena opción a favor de la descentralización y la democratización Es condición indispensable en la Ucom, el dar privilegio al municipio, entendido esté cómo el espacio físico geográfico que convoca a todos los actores, sus autoridades y la población a sumarse a un proceso de desarrollo sustentable y sostenible. La Ucom incorpora, por tanto, la convicción de que la máxima participación de las mujeres en todas las esferas, en igualdad de condiciones con los hombres, es indispensable para el desarrollo pleno y completo del municipio."
	}
]